{
"cookie": "_uuid=5E4B2B98-1014A-84D8-FA33-EC210C5BEC10DA82367infoc; buvid3=E9D0A426-85E9-E6C7-C75E-206A3E1BEB4D81910infoc; b_nut=1666168082; buvid4=4FC87B9C-3540-2275-688C-8612D3EA719B81910-022101916-ZLe640jXRAMHySuaCe9aUw==; rpdid=|(k|u)YYm)uY0J'uYYYuY)uuu; i-wanna-go-back=-1; fingerprint=9c214a6da0197a48e576ccf22e9f0ac7; buvid_fp_plain=undefined; nostalgia_conf=-1; DedeUserID=3493076028885079; DedeUserID__ckMd5=60a8757a1f4d6ae9; buvid_fp=9c214a6da0197a48e576ccf22e9f0ac7; CURRENT_QUALITY=80; b_ut=5; PVID=2; bp_video_offset_3493076028885079=undefined; bsource=search_google; SESSDATA=42b8ada6,1683277266,4bd05*b2; bili_jct=2dbe39aea02b41324395630a24d4775f; sid=89gnel66; innersign=0; b_lsid=9EF63922_1844D55A286; CURRENT_FNVAL=4048", 
"classes": [{"type_name": "初一语文","type_id": "初一语文"},
{"type_name": "初一数学","type_id": "初一数学"},
{"type_name": "初一英语","type_id": "初一英语"},
{"type_name": "初一历史","type_id": "初一历史"},
{"type_name": "初一地理","type_id": "初一地理"},
{"type_name": "初一生物","type_id": "初一生物"},
{"type_name": "初一物理","type_id": "初一物理"},
{"type_name": "初一化学","type_id": "初一化学"},
{"type_name": "初二语文","type_id": "初二语文"},
{"type_name": "初二数学","type_id": "初二数学"},
{"type_name": "初二英语","type_id": "初二英语"},
{"type_name": "初二历史","type_id": "初二历史"},
{"type_name": "初二地理","type_id": "初二地理"},
{"type_name": "初二生物","type_id": "初二生物"},
{"type_name": "初二物理","type_id": "初二物理"},
{"type_name": "初二化学","type_id": "初二化学"},
{"type_name": "初三语文","type_id": "初三语文"},
{"type_name": "初三数学","type_id": "初三数学"},
{"type_name": "初三英语","type_id": "初三英语"},
{"type_name": "初三历史","type_id": "初三历史"},
{"type_name": "初三地理","type_id": "初三地理"},
{"type_name": "初三生物","type_id": "初三生物"},
{"type_name": "初三物理","type_id": "初三物理"},
{"type_name": "初三化学","type_id": "初三化学"}],  
"filter": {"初一语文": [{"key": "tid","name": "分类","value": [{"n": "全部","v": "语文初一"},
{"n": "沪教版","v": "沪教版初一语文"},
{"n": "人教版","v": "人教版初一语文"},
{"n": "北师大版","v": "北师大版初一语文"},
{"n": "苏教版","v": "苏教版初一语文"}]},
{"key": "duration","name": "时长","value": [{"n": "全部","v": "0"},
{"n": "60分钟以上","v": "4"},
{"n": "30~60分钟","v": "3"},
{"n": "10~30分钟","v": "2"},
{"n": "10分钟以下","v": "1"}]}],"初一英语": [{"key": "tid","name": "分类","value": [{"n": "全部","v": "初一英语"},
{"n": "沪教版","v": "沪教版初一英语"},
{"n": "人教版","v": "人教版初一英语"},
{"n": "北师大版","v": "北师大版初一英语"},
{"n": "苏教版","v": "苏教版初一英语"}]},
{"key": "duration","name": "时长","value": [{"n": "全部","v": "0"},
{"n": "60分钟以上","v": "4"},
{"n": "30~60分钟","v": "3"},
{"n": "10~30分钟","v": "2"},
{"n": "10分钟以下","v": "1"}]}],"初一数学": [{"key": "tid","name": "分类","value": [{"n": "全部","v": "初一数学"},
{"n": "沪教版","v": "沪教版初一数学"},
{"n": "人教版","v": "人教版初一数学"},
{"n": "北师大版","v": "北师大版初一数学"},
{"n": "苏教版","v": "苏教版初一数学"}]},
{"key": "duration","name": "时长","value": [{"n": "全部","v": "0"},
{"n": "60分钟以上","v": "4"},
{"n": "30~60分钟","v": "3"},
{"n": "10~30分钟","v": "2"},
{"n": "10分钟以下","v": "1"}]}],"初一化学": [{"key": "tid","name": "分类","value": [{"n": "全部","v": "初一化学"},
{"n": "沪教版","v": "沪教版初一化学"},
{"n": "人教版","v": "人教版初一化学"},
{"n": "北师大版","v": "北师大版初一化学"},
{"n": "苏教版","v": "苏教版初一化学"}]},
{"key": "duration","name": "时长","value": [{"n": "全部","v": "0"},
{"n": "60分钟以上","v": "4"},
{"n": "30~60分钟","v": "3"},
{"n": "10~30分钟","v": "2"},
{"n": "10分钟以下","v": "1"}]}],"初一物理": [{"key": "tid","name": "分类","value": [{"n": "全部","v": "初一物理"},
{"n": "沪教版","v": "沪教版初一物理"},
{"n": "人教版","v": "人教版初一物理"},
{"n": "北师大版","v": "北师大版初一物理"},
{"n": "苏教版","v": "苏教版初一物理"}]},
{"key": "duration","name": "时长","value": [{"n": "全部","v": "0"},
{"n": "60分钟以上","v": "4"},
{"n": "30~60分钟","v": "3"},
{"n": "10~30分钟","v": "2"},
{"n": "10分钟以下","v": "1"}]}],"初一生物": [{"key": "tid","name": "分类","value": [{"n": "全部","v": "初一生物"},
{"n": "沪教版","v": "沪教版初一生物"},
{"n": "人教版","v": "人教版初一生物"},
{"n": "北师大版","v": "北师大版初一生物"},
{"n": "苏教版","v": "苏教版初一生物"}]},
{"key": "duration","name": "时长","value": [{"n": "全部","v": "0"},
{"n": "60分钟以上","v": "4"},
{"n": "30~60分钟","v": "3"},
{"n": "10~30分钟","v": "2"},
{"n": "10分钟以下","v": "1"}]}],"初一地理": [{"key": "tid","name": "分类","value": [{"n": "全部","v": "初一地理"},
{"n": "沪教版","v": "沪教版初一地理"},
{"n": "人教版","v": "人教版初一地理"},
{"n": "北师大版","v": "北师大版初一地理"},
{"n": "苏教版","v": "苏教版初一地理"}]},
{"key": "duration","name": "时长","value": [{"n": "全部","v": "0"},
{"n": "60分钟以上","v": "4"},
{"n": "30~60分钟","v": "3"},
{"n": "10~30分钟","v": "2"},
{"n": "10分钟以下","v": "1"}]}],"初一历史": [{"key": "tid","name": "分类","value": [{"n": "全部","v": "初一历史"},
{"n": "沪教版","v": "沪教版初一历史"},
{"n": "人教版","v": "人教版初一历史"},
{"n": "北师大版","v": "北师大版初一历史"},
{"n": "苏教版","v": "苏教版初一历史"}]},
{"key": "duration","name": "时长","value": [{"n": "全部","v": "0"},
{"n": "60分钟以上","v": "4"},
{"n": "30~60分钟","v": "3"},
{"n": "10~30分钟","v": "2"},
{"n": "10分钟以下","v": "1"}]}],"初二语文": [{"key": "tid","name": "分类","value": [{"n": "全部","v": "初二语文"},
{"n": "沪教版","v": "沪教版初二语文"},
{"n": "人教版","v": "人教版初二语文"},
{"n": "北师大版","v": "北师大版初二语文"},
{"n": "苏教版","v": "苏教版初二语文"}]},
{"key": "duration","name": "时长","value": [{"n": "全部","v": "0"},
{"n": "60分钟以上","v": "4"},
{"n": "30~60分钟","v": "3"},
{"n": "10~30分钟","v": "2"},
{"n": "10分钟以下","v": "1"}]}],"初二英语": [{"key": "tid","name": "分类","value": [{"n": "全部","v": "初二英语"},
{"n": "沪教版","v": "沪教版初二英语"},
{"n": "人教版","v": "人教版初二英语"},
{"n": "北师大版","v": "北师大版初二英语"},
{"n": "苏教版","v": "苏教版初二英语"}]},
{"key": "duration","name": "时长","value": [{"n": "全部","v": "0"},
{"n": "60分钟以上","v": "4"},
{"n": "30~60分钟","v": "3"},
{"n": "10~30分钟","v": "2"},
{"n": "10分钟以下","v": "1"}]}],
"初二数学": [{"key": "tid","name": "分类","value": [{"n": "全部","v": "初二数学"},
{"n": "沪教版","v": "沪教版初二数学"},
{"n": "人教版","v": "人教版初二数学"},
{"n": "北师大版","v": "北师大版初二数学"},
{"n": "苏教版","v": "苏教版初二数学"}]},
{"key": "duration","name": "时长","value": [{"n": "全部","v": "0"},
{"n": "60分钟以上","v": "4"},
{"n": "30~60分钟","v": "3"},
{"n": "10~30分钟","v": "2"},
{"n": "10分钟以下","v": "1"}]}],
"初二化学": [{"key": "tid","name": "分类","value": [{"n": "全部","v": "初二化学"},
{"n": "沪教版","v": "沪教版初二化学"},
{"n": "人教版","v": "人教版初二化学"},
{"n": "北师大版","v": "北师大版初二化学"},
{"n": "苏教版","v": "苏教版初二化学"}]},
{"key": "duration","name": "时长","value": [{"n": "全部","v": "0"},
{"n": "60分钟以上","v": "4"},
{"n": "30~60分钟","v": "3"},
{"n": "10~30分钟","v": "2"},
{"n": "10分钟以下","v": "1"}]}],
"初二物理": [{"key": "tid","name": "分类","value": [{"n": "全部","v": "初二物理"},
{"n": "沪教版","v": "沪教版初二物理"},
{"n": "人教版","v": "人教版初二物理"},
{"n": "北师大版","v": "北师大版初二物理"},
{"n": "苏教版","v": "苏教版初二物理"}]},
{"key": "duration","name": "时长","value": [{"n": "全部","v": "0"},
{"n": "60分钟以上","v": "4"},
{"n": "30~60分钟","v": "3"},
{"n": "10~30分钟","v": "2"},
{"n": "10分钟以下","v": "1"}]}],
"初二生物": [{"key": "tid","name": "分类","value": [{"n": "全部","v": "初二生物"},
{"n": "沪教版","v": "沪教版初二生物"},
{"n": "人教版","v": "人教版初二生物"},
{"n": "北师大版","v": "北师大版初二生物"},
{"n": "苏教版","v": "苏教版初二生物"}]},
{"key": "duration","name": "时长","value": [{"n": "全部","v": "0"},
{"n": "60分钟以上","v": "4"},
{"n": "30~60分钟","v": "3"},
{"n": "10~30分钟","v": "2"},
{"n": "10分钟以下","v": "1"}]}],
"初二地理": [{"key": "tid","name": "分类","value": [{"n": "全部","v": "初二地理"},
{"n": "沪教版","v": "沪教版初二地理"},
{"n": "人教版","v": "人教版初二地理"},
{"n": "北师大版","v": "北师大版初二生物"},
{"n": "苏教版","v": "苏教版初二地理"}]},
{"key": "duration","name": "时长","value": [{"n": "全部","v": "0"},
{"n": "60分钟以上","v": "4"},
{"n": "30~60分钟","v": "3"},
{"n": "10~30分钟","v": "2"},
{"n": "10分钟以下","v": "1"}]}],
"初二历史": [{"key": "tid","name": "分类","value": [{"n": "全部","v": "初二历史"},
{"n": "沪教版","v": "沪教版初二历史"},
{"n": "人教版","v": "人教版初二历史"},
{"n": "北师大版","v": "北师大版初二历史"},
{"n": "苏教版","v": "苏教版初二历史"}]},
{"key": "duration","name": "时长","value": [{"n": "全部","v": "0"},
{"n": "60分钟以上","v": "4"},
{"n": "30~60分钟","v": "3"},
{"n": "10~30分钟","v": "2"},
{"n": "10分钟以下","v": "1"}]}],
"初三语文": [{"key": "tid","name": "分类","value": [{"n": "全部","v": "初三语文"},
{"n": "沪教版","v": "沪教版初三语文"},
{"n": "人教版","v": "人教版初三语文"},
{"n": "北师大版","v": "北师大版初三语文"},
{"n": "苏教版","v": "苏教版初三语文"}]},
{"key": "duration","name": "时长","value": [{"n": "全部","v": "0"},
{"n": "60分钟以上","v": "4"},
{"n": "30~60分钟","v": "3"},
{"n": "10~30分钟","v": "2"},
{"n": "10分钟以下","v": "1"}]}],
"初三英语": [{"key": "tid","name": "分类","value": [{"n": "全部","v": "初三英语"},
{"n": "沪教版","v": "沪教版初三英语"},
{"n": "人教版","v": "人教版初三英语"},
{"n": "北师大版","v": "北师大版初三英语"},
{"n": "苏教版","v": "苏教版初三英语"}]},
{"key": "duration","name": "时长","value": [{"n": "全部","v": "0"},
{"n": "60分钟以上","v": "4"},
{"n": "30~60分钟","v": "3"},
{"n": "10~30分钟","v": "2"},
{"n": "10分钟以下","v": "1"}]}],
"初三数学": [{"key": "tid","name": "分类","value": [{"n": "全部","v": "初三数学"},
{"n": "沪教版","v": "沪教版初三数学"},
{"n": "人教版","v": "人教版初三数学"},
{"n": "北师大版","v": "北师大版初三数学"},
{"n": "苏教版","v": "苏教版初三数学"}]},
{"key": "duration","name": "时长","value": [{"n": "全部","v": "0"},
{"n": "60分钟以上","v": "4"},
{"n": "30~60分钟","v": "3"},
{"n": "10~30分钟","v": "2"},
{"n": "10分钟以下","v": "1"}]}],
"初三地理": [{"key": "tid","name": "分类","value": [{"n": "全部","v": "初三地理"},
{"n": "沪教版","v": "沪教版初三地理"},
{"n": "人教版","v": "人教版初三地理"},
{"n": "北师大版","v": "北师大版初三地理"},
{"n": "苏教版","v": "苏教版初三地理"}]},
{"key": "duration","name": "时长","value": [{"n": "全部","v": "0"},
{"n": "60分钟以上","v": "4"},
{"n": "30~60分钟","v": "3"},
{"n": "10~30分钟","v": "2"},
{"n": "10分钟以下","v": "1"}]}],
"初三化学": [{"key": "tid","name": "分类","value": [{"n": "全部","v": "初三化学"},
{"n": "沪教版","v": "沪教版初三化学"},
{"n": "人教版","v": "人教版初三化学"},
{"n": "北师大版","v": "北师大版初三化学"},
{"n": "苏教版","v": "苏教版初三化学"}]},
{"key": "duration","name": "时长","value": [{"n": "全部","v": "0"},
{"n": "60分钟以上","v": "4"},
{"n": "30~60分钟","v": "3"},
{"n": "10~30分钟","v": "2"},
{"n": "10分钟以下","v": "1"}]}],
"初三物理": [{"key": "tid","name": "分类","value": [{"n": "全部","v": "初三物理"},
{"n": "沪教版","v": "沪教版初三物理"},
{"n": "人教版","v": "人教版初三物理"},
{"n": "北师大版","v": "北师大版初三物理"},
{"n": "苏教版","v": "苏教版初三物理"}]},
{"key": "duration","name": "时长","value": [{"n": "全部","v": "0"},
{"n": "60分钟以上","v": "4"},
{"n": "30~60分钟","v": "3"},
{"n": "10~30分钟","v": "2"},
{"n": "10分钟以下","v": "1"}]}],
"初三生物": [{"key": "tid","name": "分类","value": [{"n": "全部","v": "初三生物"},
{"n": "沪教版","v": "沪教版初三生物"},
{"n": "人教版","v": "人教版初三生物"},
{"n": "北师大版","v": "北师大版初三生物"},
{"n": "苏教版","v": "苏教版初三生物"}]},
{"key": "duration","name": "时长","value": [{"n": "全部","v": "0"},
{"n": "60分钟以上","v": "4"},
{"n": "30~60分钟","v": "3"},
{"n": "10~30分钟","v": "2"},
{"n": "10分钟以下","v": "1"}]}],
"初三历史": [{"key": "tid","name": "分类","value": [{"n": "全部","v": "初三历史"},
{"n": "沪教版","v": "沪教版初三历史"},
{"n": "人教版","v": "人教版初三历史"},
{"n": "北师大版","v": "北师大版初三历史"},
{"n": "苏教版","v": "苏教版初三历史"}]},
{"key": "duration","name": "时长","value": [{"n": "全部","v": "0"},
{"n": "60分钟以上","v": "4"},
{"n": "30~60分钟","v": "3"},
{"n": "10~30分钟","v": "2"},
{"n": "10分钟以下","v": "1"}]}]}}