{
"cookie": "_uuid=5E4B2B98-1014A-84D8-FA33-EC210C5BEC10DA82367infoc; buvid3=E9D0A426-85E9-E6C7-C75E-206A3E1BEB4D81910infoc; b_nut=1666168082; buvid4=4FC87B9C-3540-2275-688C-8612D3EA719B81910-022101916-ZLe640jXRAMHySuaCe9aUw==; rpdid=|(k|u)YYm)uY0J'uYYYuY)uuu; i-wanna-go-back=-1; fingerprint=9c214a6da0197a48e576ccf22e9f0ac7; buvid_fp_plain=undefined; nostalgia_conf=-1; DedeUserID=3493076028885079; DedeUserID__ckMd5=60a8757a1f4d6ae9; buvid_fp=9c214a6da0197a48e576ccf22e9f0ac7; CURRENT_QUALITY=80; b_ut=5; PVID=2; bp_video_offset_3493076028885079=undefined; bsource=search_google; SESSDATA=42b8ada6,1683277266,4bd05*b2; bili_jct=2dbe39aea02b41324395630a24d4775f; sid=89gnel66; innersign=0; b_lsid=9EF63922_1844D55A286; CURRENT_FNVAL=4048", 
  "classes": [
 		{
			"type_name": "热榜",
			"type_id": "2022年热们歌曲超清"
		},
		{
			"type_name": "抖音神曲",
			"type_id": "抖音神曲超清"
		},
 		{
			"type_name": "网红翻唱",
			"type_id": "网红翻唱歌曲超清"
		},
    {
      "type_name": "粤语",
      "type_id": "粤语MV4k合集"
    },
    {
      "type_name": "2022年热榜",
      "type_id": "2022年热门MV4k合集"
    },
    {
      "type_name": "KTV热门",
      "type_id": "KTV热门MV4k合集"
    },
    {
      "type_name": "滚石经典",
      "type_id": "滚石MV4k合集"
    },
    {
      "type_name": "经典老歌",
      "type_id": "经典老歌"
    },
    {
      "type_name": "古风MV",
      "type_id": "古风MV4k合集"
    },
    {
      "type_name": "闽南语MV",
      "type_id": "闽南语MV4k合集"
    },
    {
      "type_name": "印度歌舞",
      "type_id": "印度歌舞MV4k合集"
    },

    {
      "type_name": "网红翻唱",
      "type_id": "网红翻唱MV4k合集"
    },
    {
      "type_name": "韩国女团",
      "type_id": "韩国女团MV4k合集"
    },
    {
      "type_name": "A阿黛尔",
      "type_id": "阿黛尔MV4k合集"
    },
    
    {
      "type_name": "Blackpink",
      "type_id": "blackpinkMV4k合集"
    },
    {
      "type_name": "Beyond",
      "type_id": "beyondMV超清合集"
    },
    {
      "type_name": "B坂井泉水",
      "type_id": "坂井泉水MV超清合集"
    },
    {
      "type_name": "B宝丽金",
      "type_id": "宝丽金MV超清合集"
    },
    {
      "type_name": "B布兰妮",
      "type_id": "布兰妮MV超清合集"
    },
    {
      "type_name": "C崔健",
      "type_id": "催件MV超清合集"
    },
    {
      "type_name": "C草蜢",
      "type_id": "草蜢MV超清合集"
    },
    {
      "type_name": "Coldplay",
      "type_id": "coldplayMV超清合集"
    },
    {
      "type_name": "C陈慧娴",
      "type_id": "陈慧娴MV超清合集"
    },
    {
      "type_name": "C陈百强",
      "type_id": "陈百强MV超清合集"
    },
    {
      "type_name": "C陈淑桦",
      "type_id": "陈淑桦MV超清合集"
    },
    
    {
      "type_name": "C陈慧琳",
      "type_id": "陈慧琳MV超清合集"
    },
    {
      "type_name": "D邓丽君",
      "type_id": "邓丽君MV超清合集"
    },
    {
      "type_name": "D邓紫棋",
      "type_id": "邓紫棋MV超清合集"
    },
     {
      "type_name": "D刀郎",
      "type_id": "刀郎MV超清合集"
    },
    {
      "type_name": "D达明一派",
      "type_id": "刘以达MV超清合集"
    },
    {
      "type_name": "F费玉清",
      "type_id": "费玉清MV超清合集"
    },
    {
      "type_name": "F飞图",
      "type_id": "飞图MV超清合集"
    },
    {
      "type_name": "G谷村新司",
      "type_id": "谷村新司MV超清合集"
    },
    {
      "type_name": "G郭富城",
      "type_id": "郭富城MV超清合集"
    },
    {
      "type_name": "G关淑怡",
      "type_id": "关淑怡MV超清合集"
    },
    {
      "type_name": "H黄凯芹",
      "type_id": "黄凯芹MV超清合集"
    },
    {
      "type_name": "J降央卓玛",
      "type_id": "降央卓玛MV超清合集"
    },
    
    {
      "type_name": "J江慧",
      "type_id": "江慧MV超清合集"
    },
    {
      "type_name": "J吉永小百合",
      "type_id": "吉永小百合MV超清合集"
    },
    {
      "type_name": "J金庸",
      "type_id": "金庸影视MV超清合集"
    },
    {
      "type_name": "K柯以敏",
      "type_id": "柯以敏MV超清合集"
    },
    {
      "type_name": "K邝美云",
      "type_id": "邝美云MV超清合集"
    },
    {
      "type_name": "L刘德华",
      "type_id": "刘德华MV超清合集"
    },
    {
      "type_name": "Lady Gaga",
      "type_id": "Lady GagaMV超清合集"
    },
    {
      "type_name": "L龙飘飘",
      "type_id": "龙飘飘MV超清合集"
    },
    {
      "type_name": "L罗大佑",
      "type_id": "罗大佑MV"
    },
    {
      "type_name": "L林志炫",
      "type_id": "林志炫MV"
    },
    {
      "type_name": "L林忆莲",
      "type_id": "林忆莲MV"
    },
    {
      "type_name": "L李知恩",
      "type_id": "李知恩MV"
    },
    {
      "type_name": "L梁静茹",
      "type_id": "梁静茹MV"
    },
    {
      "type_name": "L冷漠",
      "type_id": "冷漠MV"
    },
    {
      "type_name": "L李克勤",
      "type_id": "李克勤MV"
    },
    {
      "type_name": "L林子祥",
      "type_id": "林子祥MV"
    },
    {
      "type_name": "L黎明",
      "type_id": "黎明MV"
    },
    {
      "type_name": "L刘若英",
      "type_id": "刘若英MV"
    },
    {
      "type_name": "M莫文蔚",
      "type_id": "莫文蔚MV"
    },
    {
      "type_name": "M孟庭苇",
      "type_id": "孟庭苇MV"
    },
    {
      "type_name": "M麦当娜",
      "type_id": "麦当娜MV"
    },

    {
      "type_name": "M迈克杰克逊",
      "type_id": "迈克杰克逊MV"
    },
    {
      "type_name": "N雅尼紫禁城",
      "type_id": "雅尼紫禁城MV"
    },
    {
      "type_name": "P潘越云",
      "type_id": "潘越云MV"
    },
    {
      "type_name": "P潘美辰",
      "type_id": "潘美辰MV"
    },
    {
      "type_name": "Q齐秦",
      "type_id": "齐秦MV"
    },
    
    {
      "type_name": "R任贤齐",
      "type_id": "任贤齐MV"
    },
    {
      "type_name": "S苏慧伦",
      "type_id": "苏慧伦MV"
    },
    {
      "type_name": "T童安格",
      "type_id": "童安格MV"
    },
    {
      "type_name": "TFBOYS",
      "type_id": "TFBOYSMV"
    },
    {
      "type_name": "T太极乐队",
      "type_id": "太极乐队MV"
    },
    {
      "type_name": "T唐朝摇滚",
      "type_id": "唐朝摇滚MV"
    },
    
    {
      "type_name": "T谭咏麟",
      "type_id": "谭咏麟MV"
    },
    
    {
      "type_name": "W王琪",
      "type_id": "王琪MV"
    },
     {
      "type_name": "W伍珂玥",
      "type_id": "伍珂玥MV"
    },
    {
      "type_name": "W王杰",
      "type_id": "王杰MV"
    },
    {
      "type_name": "W伍佰",
      "type_id": "伍佰MV"
    },
    {
      "type_name": "W温兆伦",
      "type_id": "温兆伦MV"
    },
    {
      "type_name": "W王菲",
      "type_id": "王菲MV"
    },
    {
      "type_name": "X徐小凤",
      "type_id": "徐小凤MV"
    },
    {
      "type_name": "X席琳迪翁",
      "type_id": "席琳迪翁MV"
    },
    {
      "type_name": "X许嵩",
      "type_id": "黄许嵩MV"
    },
    {
      "type_name": "X许美静",
      "type_id": "许美静MV"
    },
    {
      "type_name": "X许冠杰",
      "type_id": "许冠杰MV"
    },
    {
      "type_name": "X熊天平",
      "type_id": "熊天平MV"
    },
    {
      "type_name": "X小虎队",
      "type_id": "小虎队MV"
    },
    {
      "type_name": "X许巍",
      "type_id": "许巍MV"
    },
    {
      "type_name": "Y叶启田",
      "type_id": "叶启田MV"
    },
    {
      "type_name": "Y杨钰莹",
      "type_id": "杨钰莹MV"
    },
    {
      "type_name": "Y叶玉卿",
      "type_id": "叶玉卿MV"
    },
    {
      "type_name": "Y杨千嬅",
      "type_id": "杨千嬅MV"
    },
    {
      "type_name": "Y怡正宵",
      "type_id": "怡正宵MV"
    },
    {
      "type_name": "Z左麟右李",
      "type_id": "左麟右李MV"
    },
    {
      "type_name": "Z张楚",
      "type_id": "张楚MV"
    },
    {
      "type_name": "Z张真",
      "type_id": "张真MV"
    },
    {
      "type_name": "Z张震岳",
      "type_id": "张震岳MV"
    },
    {
      "type_name": "Z赵传",
      "type_id": "赵传MV"
    },
    {
      "type_name": "Z周华健",
      "type_id": "周华健MV"
    },
    {
      "type_name": "Z周启生",
      "type_id": "周启生MV"
    },
    {
      "type_name": "Z张信哲",
      "type_id": "张信哲MV"
    },
    {
      "type_name": "Z张也",
      "type_id": "张也MV"
    },
    
    {
      "type_name": "Z周慧敏",
      "type_id": "周慧敏MV"
    },
   
    {
      "type_name": "Z张碧晨",
      "type_id": "张碧晨MV"
    },
    {
      "type_name": "Z中岛美雪",
      "type_id": "中岛美雪MV"
    },
    {
      "type_name": "Z张学友",
      "type_id": "张学友MV"
    },
    {
      "type_name": "Z猪哥亮",
      "type_id": "猪哥亮MV"
    },
    {
      "type_name": "Z周杰伦",
      "type_id": "周杰伦MV"
    },
    {
      "type_name": "Z周深",
      "type_id": "周深MV"
    },
    {
      "type_name": "Z张蔷",
      "type_id": "张蔷MV"
    },
    {
      "type_name": "Z张帝",
      "type_id": "张帝MV"
    },
    {
      "type_name": "Z张国荣",
      "type_id": "张国荣MV"
    },
    {
      "type_name": "Z周传雄",
      "type_id": "周传雄MV"
    },
    {
      "type_name": "公众号“吾爱有三日月与卿”和“吾爱评测”整理",
      "type_id": "吾爱评测"
    }
  ],
  "filter": {
    "搞笑": [
      {
        "key": "duration",
        "name": "时长",
        "value": [
          {
            "n": "全部",
            "v": "0"
          },
          {
            "n": "60分钟以上",
            "v": "4"
          },
          {
            "n": "30~60分钟",
            "v": "3"
          },
          {
            "n": "10~30分钟",
            "v": "2"
          },
          {
            "n": "10分钟以下",
            "v": "1"
          }
        ]
      }
    ],
    "动物世界": [
      {
        "key": "duration",
        "name": "时长",
        "value": [
          {
            "n": "全部",
            "v": "0"
          },
          {
            "n": "60分钟以上",
            "v": "4"
          },
          {
            "n": "30~60分钟",
            "v": "3"
          },
          {
            "n": "10~30分钟",
            "v": "2"
          },
          {
            "n": "10分钟以下",
            "v": "1"
          }
        ]
      }
    ]
  }
}